<?xml version="1.0" encoding="utf-8"?>
<!-- Generator: Adobe Illustrator 19.2.1, SVG Export Plug-In . SVG Version: 6.00 Build 0)  -->
<svg version="1.1" id="Capa_1" xmlns="http://www.w3.org/2000/svg" xmlns:xlink="http://www.w3.org/1999/xlink" x="0px" y="0px"
	 viewBox="0 0 512 512" style="enable-background:new 0 0 512 512;" xml:space="preserve">
<style type="text/css">
	.st0{fill:#009688;}
</style>
<g>
	<g>
		<g>
			<path class="st0" d="M259.6,420.6c-87.3,0-172.9-48.6-254.4-144.5c-6.3-7.4-6.9-18.2-1.4-26.2c4.4-6.5,110.3-158.5,258.8-158.5
				c88,0,170.6,53.2,245.4,158.2c5.2,7.3,5.4,17.1,0.3,24.6C504.3,280.2,408.3,420.6,259.6,420.6z M49.5,261.1
				c69.3,77.1,139.9,116.2,210.1,116.2c102.2,0,178.6-83.7,203.9-115.4c-63.5-84.5-131-127.3-200.8-127.3
				C160.4,134.6,77.4,226.3,49.5,261.1z"/>
		</g>
		<path class="st0" d="M256,151.9c-57.5,0-104.1,46.6-104.1,104.1c0,57.5,46.6,104.1,104.1,104.1c57.5,0,104.1-46.6,104.1-104.1
			C360.1,198.5,313.5,151.9,256,151.9z M293.3,257.5c-23.2,0-42-18.8-42-41.9c0-23.2,18.8-42,42-42c23.2,0,42,18.8,42,42
			C335.3,238.7,316.5,257.5,293.3,257.5z"/>
	</g>
</g>
</svg>
