<?xml version="1.0" encoding="utf-8"?>
<!-- Generator: Adobe Illustrator 19.2.1, SVG Export Plug-In . SVG Version: 6.00 Build 0)  -->
<svg version="1.1" id="Layer_1" xmlns="http://www.w3.org/2000/svg" xmlns:xlink="http://www.w3.org/1999/xlink" x="0px" y="0px"
	 viewBox="0 0 179.5 105.4" style="enable-background:new 0 0 179.5 105.4;" xml:space="preserve">
<style type="text/css">
	.st0{fill:#8ED2C9;}
	.st1{enable-background:new    ;}
	.st2{fill:#F6F6F6;}
</style>
<rect x="55.5" y="55.9" class="st0" width="105" height="44.4"/>
<g class="st1">
	<path class="st2" d="M35,4.4v6.8H23.6v31.4h-8V11.2H4.1V4.4H35z"/>
	<path class="st2" d="M39.6,42.6V4.4h7.9V19h14.8V4.4h7.9v38.1h-7.9v-17H47.6v17H39.6z"/>
	<path class="st2" d="M78,4.4h8.1v23.4c0,2.6,0.3,4.5,0.9,5.7c1,2.1,3.1,3.2,6.3,3.2c3.2,0,5.3-1.1,6.3-3.2c0.6-1.2,0.9-3.1,0.9-5.7
		V4.4h8.1v23.4c0,4.1-0.6,7.2-1.9,9.5c-2.3,4.1-6.8,6.2-13.4,6.2s-11.1-2.1-13.4-6.2c-1.3-2.3-1.9-5.4-1.9-9.5V4.4z"/>
	<path class="st2" d="M123.5,42.6h-7.9V4.4h7.9V42.6z"/>
	<path class="st2" d="M136.7,30.8c0.2,1.7,0.7,3,1.5,3.9c1.3,1.6,3.6,2.4,6.8,2.4c1.9,0,3.5-0.2,4.7-0.6c2.3-0.8,3.4-2.3,3.4-4.4
		c0-1.3-0.6-2.2-1.7-2.9c-1.1-0.7-2.9-1.3-5.3-1.8l-4.1-0.9c-4.1-0.9-6.8-1.9-8.4-2.9c-2.6-1.8-3.9-4.5-3.9-8.3
		c0-3.4,1.3-6.3,3.8-8.5c2.5-2.3,6.2-3.4,11.1-3.4c4.1,0,7.5,1.1,10.4,3.2c2.9,2.1,4.4,5.2,4.5,9.3h-7.7c-0.1-2.3-1.2-3.9-3.1-4.9
		c-1.3-0.6-2.9-1-4.7-1c-2.1,0-3.8,0.4-5,1.2s-1.9,2-1.9,3.5c0,1.4,0.6,2.4,1.9,3.1c0.8,0.4,2.5,1,5.1,1.6l6.7,1.6
		c2.9,0.7,5.1,1.6,6.6,2.8c2.3,1.8,3.4,4.4,3.4,7.8c0,3.5-1.3,6.4-4,8.7c-2.7,2.3-6.5,3.5-11.4,3.5c-5,0-9-1.1-11.8-3.4
		c-2.9-2.3-4.3-5.4-4.3-9.4H136.7z"/>
</g>
<g class="st1">
	<path class="st2" d="M70.9,92.6l11.6-29.5h3.2L97,92.6h-2.9l-3.4-9.3H77.2l-3.5,9.3H70.9z M78.2,80.9h11.6L84,65.4L78.2,80.9z"/>
	<path class="st2" d="M100.8,92.6V63.1h10.8c1.9,0,3.5,0.2,4.7,0.7c1.2,0.4,2.2,1,3,1.8c0.7,0.8,1.2,1.6,1.5,2.6s0.4,2,0.4,3.1
		c0,1.6-0.3,3-1,4.1c-0.7,1.1-1.5,1.9-2.6,2.5c-1.1,0.6-2.3,1-3.6,1.3c-1.4,0.2-2.7,0.4-4.1,0.4h-6.3v13H100.8z M110,77.2
		c1.3,0,2.5-0.1,3.5-0.2c1-0.2,1.9-0.5,2.6-0.9c0.7-0.5,1.3-1.1,1.7-1.8s0.6-1.8,0.6-3.1c0-1.9-0.6-3.3-1.8-4.2
		c-1.2-1-3.2-1.4-5.8-1.4h-7.2v11.7H110z"/>
	<path class="st2" d="M125.9,92.6V63.1h10.8c1.9,0,3.5,0.2,4.7,0.7c1.2,0.4,2.2,1,3,1.8c0.7,0.8,1.2,1.6,1.5,2.6s0.4,2,0.4,3.1
		c0,1.6-0.3,3-1,4.1c-0.7,1.1-1.5,1.9-2.6,2.5c-1.1,0.6-2.3,1-3.6,1.3c-1.4,0.2-2.7,0.4-4.1,0.4h-6.3v13H125.9z M135,77.2
		c1.3,0,2.5-0.1,3.5-0.2c1-0.2,1.9-0.5,2.6-0.9c0.7-0.5,1.3-1.1,1.7-1.8s0.6-1.8,0.6-3.1c0-1.9-0.6-3.3-1.8-4.2
		c-1.2-1-3.2-1.4-5.8-1.4h-7.2v11.7H135z"/>
</g>
</svg>
